package com.cognitivemedicine.sample;

import com.cognitivemedicine.cs.abstractreasoning.data.NECWorkProductModel;
import com.cognitivemedicine.cs.abstractreasoning.data.ProcessAdherenceServiceModel;
import com.cognitivemedicine.cs.abstractreasoning.data.LineChartServiceModel;

import com.cognitivemedicine.cs.client.DataServiceRestClient;

import com.cognitivemedicine.sample.model.OutcomeBundle;

import com.cognitivemedicine.cs.models.FormResponse
import com.cognitivemedicine.cs.abstractreasoning.data.LineChartServiceDetail
import com.cognitivemedicine.cs.abstractreasoning.data.LineChartServicePoint
import com.cognitivemedicine.cs.client.ClientUtilities;

global DataServiceRestClient simulatorService;

rule "Check for Chart Detail"
when
  $o: OutcomeBundle()
  $m: NECWorkProductModel(lineChartModel != null)  from $o.model
then
  FormResponse[] responses = simulatorService.retrieveFormResponses($o.getPatientId(), "gutchecknec", "1.0");
  LineChartServiceModel model = new LineChartServiceModel();

  if (responses != null){
      LineChartServiceDetail detail = new LineChartServiceDetail();
      detail.setTitle("Gut Check NEC");

      for(FormResponse res : responses) {
          int score = ClientUtilities.calculateGutCheckNecScore(res);
          detail.addEntry(res.getCreatedDateTime(), Integer.valueOf(score).toString());
      }

      model.setData(detail);
  }

  $m.setLineChartModel(model);
end